<?xml version="1.0" encoding="UTF-8" standalone="no"?>
<!-- Generator: Adobe Illustrator 17.1.0, SVG Export Plug-In . SVG Version: 6.00 Build 0)  -->

<svg
   xmlns:dc="http://purl.org/dc/elements/1.1/"
   xmlns:cc="http://creativecommons.org/ns#"
   xmlns:rdf="http://www.w3.org/1999/02/22-rdf-syntax-ns#"
   xmlns:svg="http://www.w3.org/2000/svg"
   xmlns="http://www.w3.org/2000/svg"
   xmlns:sodipodi="http://sodipodi.sourceforge.net/DTD/sodipodi-0.dtd"
   xmlns:inkscape="http://www.inkscape.org/namespaces/inkscape"
   version="1.1"
   id="Capa_1"
   x="0px"
   y="0px"
   viewBox="0 0 647.80817 573.34308"
   xml:space="preserve"
   sodipodi:docname="crown.svg"
   width="647.80817"
   height="573.34308"
   inkscape:version="0.92.3 (2405546, 2018-03-11)"><metadata
   id="metadata39"><rdf:RDF><cc:Work
       rdf:about=""><dc:format>image/svg+xml</dc:format><dc:type
         rdf:resource="http://purl.org/dc/dcmitype/StillImage" /><dc:title></dc:title></cc:Work></rdf:RDF></metadata><defs
   id="defs37" /><sodipodi:namedview
   pagecolor="#ffffff"
   bordercolor="#666666"
   borderopacity="1"
   objecttolerance="10"
   gridtolerance="10"
   guidetolerance="10"
   inkscape:pageopacity="0"
   inkscape:pageshadow="2"
   inkscape:window-width="1600"
   inkscape:window-height="845"
   id="namedview35"
   showgrid="true"
   inkscape:snap-global="true"
   fit-margin-top="10"
   fit-margin-left="10"
   fit-margin-bottom="10"
   fit-margin-right="10"
   inkscape:showpageshadow="false"
   inkscape:zoom="0.88224299"
   inkscape:cx="345.12438"
   inkscape:cy="-941.2768"
   inkscape:window-x="0"
   inkscape:window-y="27"
   inkscape:window-maximized="1"
   inkscape:current-layer="Capa_1"
   inkscape:snap-bbox="true"
   inkscape:snap-nodes="true"
   inkscape:bbox-nodes="true"
   inkscape:bbox-paths="true"><inkscape:grid
     type="xygrid"
     id="grid844"
     empcolor="#ff893f"
     empopacity="0.25098039"
     units="mm"
     spacingx="3.7795276"
     spacingy="3.7795276" /></sodipodi:namedview>
<path
   d="m 80.083851,124.32985 c 1.21084,-0.39783 2.48591,-0.64283 3.81125,-0.6668 l 117.610479,-1.97848 c 5.9254,-0.0984 11.16365,3.83222 12.72685,9.54593 l 45.13777,165.11625 0.0173,0.0635 44.30317,165.34169 c 1.54121,5.75183 -1.0339,11.81363 -6.24307,14.6987 l -103.2604,57.2037 c -1.19093,0.6592 -2.4523,1.09564 -3.73471,1.35333 -0.50216,11.56019 -8.39992,21.9874 -20.15576,25.13737 -14.50484,3.88655 -29.4657,-4.75109 -33.35225,-19.25593 -3.88657,-14.50483 4.75109,-29.4657 19.25593,-33.35225 8.16846,-2.18874 16.47968,-0.40431 22.87821,4.16235 l 25.51699,-43.81527 c 6.44999,-11.0739 8.24487,-24.52344 4.92798,-36.90223 -3.92191,-14.63677 -14.61219,-26.72963 -28.61257,-32.39728 l -90.320819,-36.5695 c -3.4835,6.03851 -9.27006,10.75018 -16.52164,12.69323 -14.50484,3.88655 -29.4657,-4.75111 -33.35227,-19.25593 -3.88655,-14.50484 4.75111,-29.4657 19.25595,-33.35225 7.03446,-1.88489 14.16748,-0.80328 20.10179,2.44502 0.0156,-0.0204 0.0278,-0.0432 0.0455,-0.0642 l 60.252309,-76.47496 c 9.40362,-11.93514 12.6703,-27.82146 8.73721,-42.49997 -3.34733,-12.49235 -11.36005,-22.93628 -22.56174,-29.40216 L 82.526561,150.68834 c -3.22318,7.27725 -9.57198,13.09722 -17.84066,15.3128 -14.50483,3.88655 -29.46569,-4.75111 -33.35224,-19.25593 -3.88657,-14.50483 4.75109,-29.4657 19.25592,-33.35225 11.44187,-3.06584 23.1448,1.68336 29.49427,10.93688 z"
   id="path2"
   inkscape:connector-curvature="0"
   sodipodi:nodetypes="ccccccscccsssccsccssscccsccsssc"
   style="stroke-width:1.72901583" />
<g
   id="g4"
   transform="translate(-270.91801,109.82825)">
</g>
<g
   id="g6"
   transform="translate(-270.91801,109.82825)">
</g>
<g
   id="g8"
   transform="translate(-270.91801,109.82825)">
</g>
<g
   id="g10"
   transform="translate(-270.91801,109.82825)">
</g>
<g
   id="g12"
   transform="translate(-270.91801,109.82825)">
</g>
<g
   id="g14"
   transform="translate(-270.91801,109.82825)">
</g>
<g
   id="g16"
   transform="translate(-270.91801,109.82825)">
</g>
<g
   id="g18"
   transform="translate(-270.91801,109.82825)">
</g>
<g
   id="g20"
   transform="translate(-270.91801,109.82825)">
</g>
<g
   id="g22"
   transform="translate(-270.91801,109.82825)">
</g>
<g
   id="g24"
   transform="translate(-270.91801,109.82825)">
</g>
<g
   id="g26"
   transform="translate(-270.91801,109.82825)">
</g>
<g
   id="g28"
   transform="translate(-270.91801,109.82825)">
</g>
<g
   id="g30"
   transform="translate(-270.91801,109.82825)">
</g>
<g
   id="g32"
   transform="translate(-270.91801,109.82825)">
</g>
<g
   id="g902"
   transform="matrix(1.0543823,0,0,1.0543823,157.51069,-48.248296)"
   style="fill:#fafafa;fill-opacity:1"><g
     id="g900"
     style="fill:#fafafa;fill-opacity:1"><path
       id="path898"
       d="m 355.724,384.775 c -99.313,0 -179.823,-80.51 -179.823,-179.823 0,-62.061 31.44,-116.78 79.261,-149.097 C 249.62,55.452 244.023,55.244 238.378,55.244 112.248,55.244 10,157.492 10,283.622 10,409.752 112.248,512 238.378,512 c 101.368,0 187.31,-66.044 217.147,-157.449 -28.555,19.088 -62.876,30.224 -99.801,30.224 z"
       inkscape:connector-curvature="0"
       style="fill:#fafafa;fill-opacity:1" /></g></g><g
   transform="translate(170.16885,-32.824286)"
   id="g6-3"><g
     id="g4-6"><path
       inkscape:connector-curvature="0"
       d="m 355.724,384.775 c -99.313,0 -179.823,-80.51 -179.823,-179.823 0,-62.061 31.44,-116.78 79.261,-149.097 C 249.62,55.452 244.023,55.244 238.378,55.244 112.248,55.244 10,157.492 10,283.622 10,409.752 112.248,512 238.378,512 c 101.368,0 187.31,-66.044 217.147,-157.449 -28.555,19.088 -62.876,30.224 -99.801,30.224 z"
       id="path2-7" /></g></g><path
   inkscape:connector-curvature="0"
   d="m 1092.8782,-243.64019 c 0.041,0.736 -0.013,1.485 -0.198,2.229 l -16.5,66 c -0.832,3.325 -3.812,5.663 -7.238,5.681 l -99.00001,0.5 c -0.013,0 -0.025,0 -0.038,0 h -99.001 c -3.444,0 -6.445,-2.346 -7.277,-5.688 l -16.5,-66.25 c -0.19,-0.764 -0.245,-1.534 -0.197,-2.289 -6.383,-2.011 -11.026,-7.984 -11.026,-15.023 0,-8.685 7.065,-15.75 15.75,-15.75 8.685,0 15.75,7.065 15.75,15.75 0,4.891 -2.241,9.267 -5.75,12.158 l 20.658,20.814 c 5.221,5.261 12.466,8.277 19.878,8.277 8.764,0 17.12,-4.162 22.382,-11.135 l 33.95,-44.984 c -2.852,-2.85 -4.618,-6.788 -4.618,-11.13 0,-8.685 7.065,-15.75 15.75,-15.75 8.685,0 15.75,7.065 15.75,15.75 0,4.212 -1.672,8.035 -4.375,10.864 0.01,0.012 0.02,0.022 0.029,0.035 l 33.70401,45.108 c 5.26,7.04 13.646,11.243 22.435,11.243 7.48,0 14.514,-2.913 19.803,-8.203 l 20.788,-20.788 c -3.583,-2.89 -5.884,-7.308 -5.884,-12.259 0,-8.685 7.065,-15.75 15.75,-15.75 8.685,0 15.75,7.065 15.75,15.75 0,6.851 -4.405,12.678 -10.525,14.84 z m -18.308,97.91 c 0,-4.142 -3.358,-7.5 -7.5,-7.5 H 873.07019 c -4.142,0 -7.5,3.358 -7.5,7.5 v 18 c 0,4.142 3.358,7.5 7.5,7.5 h 194.00001 c 4.142,0 7.5,-3.358 7.5,-7.5 z"
   id="path2-1" /><g
   transform="translate(1276.99,-486.63273)"
   id="g6-3-2"><g
     id="g4-6-7"><path
       inkscape:connector-curvature="0"
       d="m 355.724,384.775 c -99.313,0 -179.823,-80.51 -179.823,-179.823 0,-62.061 31.44,-116.78 79.261,-149.097 C 249.62,55.452 244.023,55.244 238.378,55.244 112.248,55.244 10,157.492 10,283.622 10,409.752 112.248,512 238.378,512 c 101.368,0 187.31,-66.044 217.147,-157.449 -28.555,19.088 -62.876,30.224 -99.801,30.224 z"
       id="path2-7-0" /></g></g><path
   d="m 1118.6162,356.5946 c 1.2108,-0.39783 2.4859,-0.64283 3.8112,-0.6668 l 117.6105,-1.97848 c 5.9254,-0.0984 11.1637,3.83222 12.7269,9.54593 l 45.1377,165.11625 0.017,0.0635 44.3032,165.34169 c 1.5412,5.75183 -1.0339,11.81363 -6.2431,14.6987 l -103.2604,57.2037 c -1.1909,0.6592 -2.4523,1.09564 -3.7347,1.35333 -0.5021,11.56019 -8.3999,21.9874 -20.1557,25.13737 -14.5049,3.88655 -29.4657,-4.75109 -33.3523,-19.25593 -3.8865,-14.50483 4.7511,-29.4657 19.256,-33.35225 8.1684,-2.18874 16.4796,-0.40431 22.8782,4.16235 l 25.517,-43.81527 c 6.4499,-11.0739 8.2448,-24.52344 4.9279,-36.90223 -3.9219,-14.63677 -14.6122,-26.72963 -28.6125,-32.39728 l -90.3209,-36.5695 c -3.4835,6.03851 -9.27,10.75018 -16.5216,12.69323 -14.5048,3.88655 -29.4657,-4.75111 -33.3523,-19.25593 -3.8865,-14.50484 4.7511,-29.4657 19.256,-33.35225 7.0344,-1.88489 14.1675,-0.80328 20.1018,2.44502 0.016,-0.0204 0.028,-0.0432 0.046,-0.0642 l 60.2523,-76.47496 c 9.4036,-11.93514 12.6703,-27.82146 8.7372,-42.49997 -3.3473,-12.49235 -11.3601,-22.93628 -22.5617,-29.40216 l -44.0208,-25.41537 c -3.2232,7.27725 -9.572,13.09722 -17.8407,15.3128 -14.5048,3.88655 -29.4656,-4.75111 -33.3522,-19.25593 -3.8866,-14.50483 4.7511,-29.4657 19.2559,-33.35225 11.4419,-3.06584 23.1448,1.68336 29.4943,10.93688 z"
   id="path2-9"
   inkscape:connector-curvature="0"
   sodipodi:nodetypes="ccccccscccsssccsccssscccsccsssc"
   style="stroke-width:1.72901583" /><g
   id="g902-3"
   transform="matrix(1.0543823,0,0,1.0543823,1216.4456,181.7495)"
   style="fill:#fafafa;fill-opacity:1"><g
     id="g900-6"
     style="fill:#fafafa;fill-opacity:1"><path
       id="path898-0"
       d="m 355.724,384.775 c -99.313,0 -179.823,-80.51 -179.823,-179.823 0,-62.061 31.44,-116.78 79.261,-149.097 C 249.62,55.452 244.023,55.244 238.378,55.244 112.248,55.244 10,157.492 10,283.622 10,409.752 112.248,512 238.378,512 c 101.368,0 187.31,-66.044 217.147,-157.449 -28.555,19.088 -62.876,30.224 -99.801,30.224 z"
       inkscape:connector-curvature="0"
       style="fill:#fafafa;fill-opacity:1" /></g></g><g
   transform="translate(1229.1037,197.17351)"
   id="g6-3-6"><g
     id="g4-6-2"><path
       inkscape:connector-curvature="0"
       d="m 355.724,384.775 c -99.313,0 -179.823,-80.51 -179.823,-179.823 0,-62.061 31.44,-116.78 79.261,-149.097 C 249.62,55.452 244.023,55.244 238.378,55.244 112.248,55.244 10,157.492 10,283.622 10,409.752 112.248,512 238.378,512 c 101.368,0 187.31,-66.044 217.147,-157.449 -28.555,19.088 -62.876,30.224 -99.801,30.224 z"
       id="path2-7-6" /></g></g><g
   transform="translate(-486.41003,477.09111)"
   id="g6-3-3"><g
     id="g4-6-5"><path
       inkscape:connector-curvature="0"
       d="m 355.724,384.775 c -99.313,0 -179.823,-80.51 -179.823,-179.823 0,-62.061 31.44,-116.78 79.261,-149.097 C 249.62,55.452 244.023,55.244 238.378,55.244 112.248,55.244 10,157.492 10,283.622 10,409.752 112.248,512 238.378,512 c 101.368,0 187.31,-66.044 217.147,-157.449 -28.555,19.088 -62.876,30.224 -99.801,30.224 z"
       id="path2-7-62" /></g></g><rect
   style="opacity:1;fill:#c63636;fill-opacity:1;stroke:none;stroke-width:3.77952766;stroke-miterlimit:4;stroke-dasharray:none;stroke-dashoffset:0;stroke-opacity:1"
   id="rect879"
   width="151.18111"
   height="151.18111"
   x="-396.8504"
   y="1291.4534" /><rect
   style="opacity:1;fill:#c69336;fill-opacity:1;stroke:none;stroke-width:3.17819142;stroke-miterlimit:4;stroke-dasharray:none;stroke-dashoffset:0;stroke-opacity:1"
   id="rect879-9"
   width="106.9012"
   height="151.18111"
   x="-347.42883"
   y="-1196.9652"
   transform="matrix(0.70710678,-0.70710678,0,-1,0,0)" /><rect
   transform="matrix(0.70710678,-0.70710678,1,0,0,0)"
   y="894.60303"
   x="-1826.3907"
   height="151.18111"
   width="106.9012"
   id="rect896"
   style="opacity:1;fill:#bac636;fill-opacity:1;stroke:none;stroke-width:3.17819142;stroke-miterlimit:4;stroke-dasharray:none;stroke-dashoffset:0;stroke-opacity:1" /><rect
   transform="matrix(-0.70710678,-0.70710678,0,-1,0,0)"
   y="-1839.4849"
   x="561.2312"
   height="151.18111"
   width="106.9012"
   id="rect898"
   style="opacity:1;fill:#c69336;fill-opacity:1;stroke:none;stroke-width:3.17819142;stroke-miterlimit:4;stroke-dasharray:none;stroke-dashoffset:0;stroke-opacity:1" /><rect
   style="opacity:1;fill:#c63636;fill-opacity:1;stroke:none;stroke-width:3.77952766;stroke-miterlimit:4;stroke-dasharray:none;stroke-dashoffset:0;stroke-opacity:1"
   id="rect879-1"
   width="151.18111"
   height="151.18111"
   x="-2.5673944e-06"
   y="1272.5557" /><rect
   transform="matrix(-0.70710678,-0.70710678,0,-1,0,0)"
   y="-1423.7368"
   x="-1.9361318e-05"
   height="151.18111"
   width="106.9012"
   id="rect898-2"
   style="opacity:1;fill:#c69336;fill-opacity:1;stroke:none;stroke-width:3.17819142;stroke-miterlimit:4;stroke-dasharray:none;stroke-dashoffset:0;stroke-opacity:1" /><rect
   style="opacity:1;fill:#bac636;fill-opacity:1;stroke:none;stroke-width:3.17819142;stroke-miterlimit:4;stroke-dasharray:none;stroke-dashoffset:0;stroke-opacity:1"
   id="rect900-7"
   width="106.9012"
   height="151.18111"
   x="-1799.6654"
   y="1121.3746"
   transform="matrix(-0.70710678,-0.70710678,-1,0,0,0)" /><g
   transform="matrix(0.33933249,0,0,0.33098873,-3.3933275,1254.2705)"
   id="g6-3-3-0"><g
     id="g4-6-5-9"><path
       inkscape:connector-curvature="0"
       d="m 355.724,384.775 c -99.313,0 -179.823,-80.51 -179.823,-179.823 0,-62.061 31.44,-116.78 79.261,-149.097 C 249.62,55.452 244.023,55.244 238.378,55.244 112.248,55.244 10,157.492 10,283.622 10,409.752 112.248,512 238.378,512 c 101.368,0 187.31,-66.044 217.147,-157.449 -28.555,19.088 -62.876,30.224 -99.801,30.224 z"
       id="path2-7-62-3" /></g></g><g
   id="g1002"
   transform="matrix(1,0,0.49999969,0.49999969,-664.6239,664.62472)"><rect
     y="1253.6581"
     x="219.67955"
     height="151.18111"
     width="151.18111"
     id="rect879-1-6"
     style="opacity:1;fill:#c63636;fill-opacity:1;stroke:none;stroke-width:3.77952766;stroke-miterlimit:4;stroke-dasharray:none;stroke-dashoffset:0;stroke-opacity:1" /><g
     id="g6-3-3-0-0"
     transform="matrix(0.33933249,0,0,0.33098873,216.28622,1235.3729)"><g
       id="g4-6-5-9-6"><path
         id="path2-7-62-3-2"
         d="m 355.724,384.775 c -99.313,0 -179.823,-80.51 -179.823,-179.823 0,-62.061 31.44,-116.78 79.261,-149.097 C 249.62,55.452 244.023,55.244 238.378,55.244 112.248,55.244 10,157.492 10,283.622 10,409.752 112.248,512 238.378,512 c 101.368,0 187.31,-66.044 217.147,-157.449 -28.555,19.088 -62.876,30.224 -99.801,30.224 z"
         inkscape:connector-curvature="0" /></g></g></g><rect
   style="opacity:1;fill:#bac636;fill-opacity:1;stroke:none;stroke-width:3.17819142;stroke-miterlimit:4;stroke-dasharray:none;stroke-dashoffset:0;stroke-opacity:1"
   id="rect900-7-1"
   width="106.9012"
   height="151.18111"
   x="-1813.3125"
   y="866.45758"
   transform="matrix(-0.70710678,-0.70710678,-1,0,0,0)" /><rect
   style="opacity:1;fill:none;fill-opacity:1;stroke:#000000;stroke-width:4.49464107;stroke-miterlimit:4;stroke-dasharray:none;stroke-dashoffset:0;stroke-opacity:1;stroke-linejoin:bevel"
   id="rect879-1-6-7"
   width="151.18111"
   height="106.90112"
   x="-1159.1698"
   y="1960.0173"
   transform="matrix(1,0,0.70710678,0.70710678,0,0)" /><g
   transform="matrix(0.33933249,0,0.16549426,0.16549426,214.2358,1376.7989)"
   id="g6-3-3-0-0-9"><g
     id="g4-6-5-9-6-2"><path
       inkscape:connector-curvature="0"
       d="m 355.724,384.775 c -99.313,0 -179.823,-80.51 -179.823,-179.823 0,-62.061 31.44,-116.78 79.261,-149.097 C 249.62,55.452 244.023,55.244 238.378,55.244 112.248,55.244 10,157.492 10,283.622 10,409.752 112.248,512 238.378,512 c 101.368,0 187.31,-66.044 217.147,-157.449 -28.555,19.088 -62.876,30.224 -99.801,30.224 z"
       id="path2-7-62-3-2-0" /></g></g><rect
   style="opacity:1;fill:none;fill-opacity:1;stroke:#000000;stroke-width:3.77999997;stroke-miterlimit:4;stroke-dasharray:none;stroke-dashoffset:0;stroke-opacity:1;stroke-linejoin:bevel"
   id="rect879-1-2"
   width="151.18111"
   height="151.18111"
   x="302.36218"
   y="1461.5321" /><rect
   transform="matrix(-0.70710678,-0.70710678,0,-1,0,0)"
   y="-1310.351"
   x="-427.60474"
   height="151.18111"
   width="106.9012"
   id="rect898-2-3"
   style="opacity:1;fill:none;fill-opacity:1;stroke:#000000;stroke-width:4.49464107;stroke-miterlimit:4;stroke-dasharray:none;stroke-dashoffset:0;stroke-opacity:1;stroke-linejoin:bevel" /><g
   transform="matrix(0.33933249,0,0.16549426,0.16549426,527.9366,1425.9328)"
   id="g6-3-3-0-0-9-5"><g
     id="g4-6-5-9-6-2-9"><path
       inkscape:connector-curvature="0"
       d="m 355.724,384.775 c -99.313,0 -179.823,-80.51 -179.823,-179.823 0,-62.061 31.44,-116.78 79.261,-149.097 C 249.62,55.452 244.023,55.244 238.378,55.244 112.248,55.244 10,157.492 10,283.622 10,409.752 112.248,512 238.378,512 c 101.368,0 187.31,-66.044 217.147,-157.449 -28.555,19.088 -62.876,30.224 -99.801,30.224 z"
       id="path2-7-62-3-2-0-2" /></g></g><path
   style="opacity:1;fill:none;fill-opacity:1;stroke:#000000;stroke-width:3.77999997;stroke-linejoin:bevel;stroke-miterlimit:4;stroke-dasharray:none;stroke-dashoffset:0;stroke-opacity:1"
   d="m 616.06299,1556.8522 0,-46.1862 h 75.59055"
   id="rect879-1-2-2"
   inkscape:connector-curvature="0"
   sodipodi:nodetypes="ccc" /><path
   transform="matrix(-0.70710678,-0.70710678,0,-1,0,0)"
   style="opacity:1;fill:none;fill-opacity:1;stroke:#000000;stroke-width:4.4946413;stroke-linejoin:bevel;stroke-miterlimit:4;stroke-dasharray:none;stroke-dashoffset:0;stroke-opacity:1"
   d="m -817.79403,-894.60295 h -53.4506 l 0,-46.18628"
   id="rect898-2-3-8"
   inkscape:connector-curvature="0"
   sodipodi:nodetypes="ccc" /></svg>